…
<img src="case_study_files/figure-gfm/unnamed-chunk-5-1.png" width="90%" />

``` r
#repeat hosts
nyc_airbnb %>%
  filter(calculated_host_listings_count > 1) |> 
  distinct(host_id, host_name, calculated_host_listings_count)
```

    ## # A tibble: 3,944 × 3
    ##     host_id host_name         calculated_host_listings_count
    ##       <dbl> <chr>                                      <dbl>
    ##  1  3684360 Enrique                                        4
    ##  2 11305944 Yahaira                                        3
    ##  3   873273 Christian & Carla                              4
    ##  4 16286162 Pat                                            4
    ##  5 23732730 Fenton                                         2
    ##  6 44213272 Gema                                           5
    ##  7  1448564 Burak                                          2
    ##  8 46250803 Mark                                           2
    ##  9 24597265 Freda                                          8
    ## 10  7686262 Sarah                                          2
    ## # ℹ 3,934 more rows
